<svg width="36" height="28" viewBox="0 0 36 28" fill="none" xmlns="http://www.w3.org/2000/svg">
<path d="M32.1835 8.14111V26.7078H4.11835V8.14111" stroke="#0085FE" stroke-linecap="round" stroke-linejoin="round"/>
<path d="M35.3018 1H1V8.14105H35.3018V1Z" stroke="#0085FE" stroke-linecap="round" stroke-linejoin="round"/>
<path d="M15.0326 13.854H21.2693" stroke="#0085FE" stroke-linecap="round" stroke-linejoin="round"/>
</svg>
